What the Package Does (One Line, Title Case) • careroll
…
all <- careroll()

all |> 
  dplyr::filter(month == "Year", level == "National" | level == "State") |> 
  dplyr::select(year, state:state_name, dplyr::ends_with("_tot"), bene_orig, bene_ma_oth) |> 
  dplyr::group_by(year, state, state_name) |> 
  dplyr::summarise(
    pct_orig = bene_orig / bene_tot,
    pct_ma = bene_ma_oth / bene_tot,
    pct_aged = bene_aged_tot / bene_tot,
    pct_disabled = bene_dsb_tot / bene_tot,
    pct_rx = bene_rx_tot / bene_tot
    )

#> # A tibble: 290 × 8
#> # Groups:   year, state [290]
#>     year state state_name           pct_orig pct_ma pct_aged pct_disabled pct_rx
#>    <int> <chr> <chr>                   <dbl>  <dbl>    <dbl>        <dbl>  <dbl>
#>  1  2017 AK    Alaska                  0.986 0.0145    0.863        0.137 0.401 
#>  2  2017 AL    Alabama                 0.636 0.364     0.776        0.224 0.716 
#>  3  2017 AR    Arkansas                0.779 0.221     0.781        0.219 0.696 
#>  4  2017 AS    American Samoa          0.963 0.0369    0.691        0.309 0.0850
#>  5  2017 AZ    Arizona                 0.615 0.385     0.874        0.126 0.733 
#>  6  2017 CA    California              0.582 0.418     0.883        0.117 0.782 
#>  7  2017 CO    Colorado                0.625 0.375     0.879        0.121 0.722 
#>  8  2017 CT    Connecticut             0.718 0.282     0.875        0.125 0.772 
#>  9  2017 DC    District of Columbia    0.841 0.159     0.835        0.165 0.593 
#> 10  2017 DE    Delaware                0.884 0.116     0.861        0.139 0.741 
#> # ℹ 280 more rows
…
State

# Medicare Beneficiaries
levels(period = "month", level = "state", group = "total")

#> # A tibble: 684 × 7
#>     year month  state state_name           bene_tot bene_orig bene_ma_oth
#>    <int> <chr>  <chr> <chr>                   <dbl>     <dbl>       <dbl>
#>  1  2021 August AL    Alabama               1072505    527115      545390
#>  2  2021 August AK    Alaska                 108856    106598        2258
#>  3  2021 August AZ    Arizona               1404230    767775      636455
#>  4  2021 August AR    Arkansas               654414    430169      224245
#>  5  2021 August CA    California            6523853   3442959     3080894
#>  6  2021 August CO    Colorado               965609    519995      445614
#>  7  2021 August CT    Connecticut            704756    362700      342056
#>  8  2021 August DE    Delaware               223611    171416       52195
#>  9  2021 August DC    District of Columbia    94288     70143       24145
#> 10  2021 August FL    Florida               4818048   2358735     2459313
#> # ℹ 674 more rows

# Aged Beneficiaries
levels(period = "month", level = "state", group = "aged")

#> # A tibble: 684 × 8
#>     year month  state state_name           bene_tot bene_aged_tot bene_aged_esrd
#>    <int> <chr>  <chr> <chr>                   <dbl>         <dbl>          <dbl>
#>  1  2021 August AL    Alabama               1072505        867759           5344
#>  2  2021 August AK    Alaska                 108856         97029            365
#>  3  2021 August AZ    Arizona               1404230       1260141           5733
#>  4  2021 August AR    Arkansas               654414        528256           2671
#>  5  2021 August CA    California            6523853       5918013          39105
#>  6  2021 August CO    Colorado               965609        875251           2894
#>  7  2021 August CT    Connecticut            704756        628541           2721
#>  8  2021 August DE    Delaware               223611        198195           1072
#>  9  2021 August DC    District of Columbia    94288         81190            923
#> 10  2021 August FL    Florida               4818048       4302487          20296
#> # ℹ 674 more rows
#> # ℹ 1 more variable: bene_aged_no_esrd <dbl>

# Disabled Beneficiaries
levels(period = "month", level = "state", group = "disabled")

#> # A tibble: 684 × 8
#>     year month  state state_name    bene_tot bene_dsb_tot bene_dsb_esrd_and_on…¹
#>    <int> <chr>  <chr> <chr>            <dbl>        <dbl>                  <dbl>
#>  1  2021 August AL    Alabama        1072505       204746                   5319
#>  2  2021 August AK    Alaska          108856        11827                    395
#>  3  2021 August AZ    Arizona        1404230       144089                   4933
#>  4  2021 August AR    Arkansas        654414       126158                   2778
#>  5  2021 August CA    California     6523853       605840                  26935
#>  6  2021 August CO    Colorado        965609        90358                   2347
#>  7  2021 August CT    Connecticut     704756        76215                   1944
#>  8  2021 August DE    Delaware        223611        25416                    828
#>  9  2021 August DC    District of …    94288        13098                    753
#> 10  2021 August FL    Florida        4818048       515561                  15521
#> # ℹ 674 more rows
#> # ℹ abbreviated name: ¹​bene_dsb_esrd_and_only_esrd
#> # ℹ 1 more variable: bene_dsb_no_esrd <dbl>

# Beneficiaries with Hospital (Part A) and Supplementary (Part B)
levels(period = "month", level = "state", group = "partAB")

#> # A tibble: 684 × 8
#>     year month  state state_name           bene_tot bene_ab_total bene_ab_orig
#>    <int> <chr>  <chr> <chr>                   <dbl>         <dbl>        <dbl>
#>  1  2021 August AL    Alabama               1072505        994211       448914
#>  2  2021 August AK    Alaska                 108856         95922        93665
#>  3  2021 August AZ    Arizona               1404230       1290697       654471
#>  4  2021 August AR    Arkansas               654414        607064       382855
#>  5  2021 August CA    California            6523853       5839500      2763487
#>  6  2021 August CO    Colorado               965609        876124       433972
#>  7  2021 August CT    Connecticut            704756        637618       295639
#>  8  2021 August DE    Delaware               223611        206672       154494
#>  9  2021 August DC    District of Columbia    94288         78484        54378
#> 10  2021 August FL    Florida               4818048       4517960      2059475
#> # ℹ 674 more rows
#> # ℹ 1 more variable: bene_ab_ma_oth <dbl>

# Prescription Drug (Part D) Beneficiaries
levels(period = "month", level = "state", group = "partD")

#> # A tibble: 684 × 8
#>     year month  state state_name   bene_tot bene_rx_tot bene_rx_pdp bene_rx_mapd
#>    <int> <chr>  <chr> <chr>           <dbl>       <dbl>       <dbl>        <dbl>
#>  1  2021 August AL    Alabama       1072505      807899      288725       519174
#>  2  2021 August AK    Alaska         108856       70147       68960         1187
#>  3  2021 August AZ    Arizona       1404230     1072451      467916       604535
#>  4  2021 August AR    Arkansas       654414      483197      273471       209726
#>  5  2021 August CA    California    6523853     5255973     2277980      2977993
#>  6  2021 August CO    Colorado       965609      730984      343406       387578
#>  7  2021 August CT    Connecticut    704756      570887      265543       305344
#>  8  2021 August DE    Delaware       223611      171440      129099        42341
#>  9  2021 August DC    District of…    94288       59714       36399        23315
#> 10  2021 August FL    Florida       4818048     3799169     1465730      2333439
#> # ℹ 674 more rows

County

# Medicare Beneficiaries
levels(period = "month", level = "county", group = "total")

#> # A tibble: 38,688 × 8
#>     year month  state state_name county   bene_tot bene_orig bene_ma_oth
#>    <int> <chr>  <chr> <chr>      <chr>       <dbl>     <dbl>       <dbl>
#>  1  2021 August AL    Alabama    Autauga     11417      5323        6094
#>  2  2021 August AL    Alabama    Baldwin     57663     28236       29427
#>  3  2021 August AL    Alabama    Barbour      6203      2639        3564
#>  4  2021 August AL    Alabama    Bibb         4716      1846        2870
#>  5  2021 August AL    Alabama    Blount      13252      5243        8009
#>  6  2021 August AL    Alabama    Bullock      2302       931        1371
#>  7  2021 August AL    Alabama    Butler       4959      2709        2250
#>  8  2021 August AL    Alabama    Calhoun     27080     15531       11549
#>  9  2021 August AL    Alabama    Chambers     8777      4421        4356
#> 10  2021 August AL    Alabama    Cherokee     7467      3899        3568
#> # ℹ 38,678 more rows

# Aged Beneficiaries
levels(period = "month", level = "county", group = "aged")

#> # A tibble: 38,688 × 9
#>     year month  state state_name county   bene_tot bene_aged_tot bene_aged_esrd
#>    <int> <chr>  <chr> <chr>      <chr>       <dbl>         <dbl>          <dbl>
#>  1  2021 August AL    Alabama    Autauga     11417          9039             54
#>  2  2021 August AL    Alabama    Baldwin     57663         50646            191
#>  3  2021 August AL    Alabama    Barbour      6203          4812             53
#>  4  2021 August AL    Alabama    Bibb         4716          3499             30
#>  5  2021 August AL    Alabama    Blount      13252         10715             40
#>  6  2021 August AL    Alabama    Bullock      2302          1738             18
#>  7  2021 August AL    Alabama    Butler       4959          3898             28
#>  8  2021 August AL    Alabama    Calhoun     27080         21097            123
#>  9  2021 August AL    Alabama    Chambers     8777          6680             75
#> 10  2021 August AL    Alabama    Cherokee     7467          5863             37
#> # ℹ 38,678 more rows
#> # ℹ 1 more variable: bene_aged_no_esrd <dbl>

# Disabled Beneficiaries
levels(period = "month", level = "county", group = "disabled")

#> # A tibble: 38,688 × 9
#>     year month  state state_name county   bene_tot bene_dsb_tot
#>    <int> <chr>  <chr> <chr>      <chr>       <dbl>        <dbl>
#>  1  2021 August AL    Alabama    Autauga     11417         2378
#>  2  2021 August AL    Alabama    Baldwin     57663         7017
#>  3  2021 August AL    Alabama    Barbour      6203         1391
#>  4  2021 August AL    Alabama    Bibb         4716         1217
#>  5  2021 August AL    Alabama    Blount      13252         2537
#>  6  2021 August AL    Alabama    Bullock      2302          564
#>  7  2021 August AL    Alabama    Butler       4959         1061
#>  8  2021 August AL    Alabama    Calhoun     27080         5983
#>  9  2021 August AL    Alabama    Chambers     8777         2097
#> 10  2021 August AL    Alabama    Cherokee     7467         1604
#> # ℹ 38,678 more rows
#> # ℹ 2 more variables: bene_dsb_esrd_and_only_esrd <dbl>, bene_dsb_no_esrd <dbl>

# Beneficiaries with Hospital (Part A) and Supplementary (Part B)
levels(period = "month", level = "county", group = "partAB")

#> # A tibble: 38,688 × 9
#>     year month  state state_name county   bene_tot bene_ab_total bene_ab_orig
#>    <int> <chr>  <chr> <chr>      <chr>       <dbl>         <dbl>        <dbl>
#>  1  2021 August AL    Alabama    Autauga     11417         10583         4491
#>  2  2021 August AL    Alabama    Baldwin     57663         53990        24574
#>  3  2021 August AL    Alabama    Barbour      6203          5868         2305
#>  4  2021 August AL    Alabama    Bibb         4716          4417         1547
#>  5  2021 August AL    Alabama    Blount      13252         12466         4457
#>  6  2021 August AL    Alabama    Bullock      2302          2127          756
#>  7  2021 August AL    Alabama    Butler       4959          4647         2397
#>  8  2021 August AL    Alabama    Calhoun     27080         24984        13435
#>  9  2021 August AL    Alabama    Chambers     8777          8197         3841
#> 10  2021 August AL    Alabama    Cherokee     7467          7106         3538
#> # ℹ 38,678 more rows
#> # ℹ 1 more variable: bene_ab_ma_oth <dbl>

# Prescription Drug (Part D) Beneficiaries
levels(period = "month", level = "county", group = "partD")

#> # A tibble: 38,688 × 9
#>     year month  state state_name county   bene_tot bene_rx_tot bene_rx_pdp
#>    <int> <chr>  <chr> <chr>      <chr>       <dbl>       <dbl>       <dbl>
#>  1  2021 August AL    Alabama    Autauga     11417        7871        1928
#>  2  2021 August AL    Alabama    Baldwin     57663       43444       15409
#>  3  2021 August AL    Alabama    Barbour      6203        4949        1526
#>  4  2021 August AL    Alabama    Bibb         4716        3640         978
#>  5  2021 August AL    Alabama    Blount      13252       10695        2891
#>  6  2021 August AL    Alabama    Bullock      2302        1868         545
#>  7  2021 August AL    Alabama    Butler       4959        3897        1761
#>  8  2021 August AL    Alabama    Calhoun     27080       17909        7039
#>  9  2021 August AL    Alabama    Chambers     8777        6842        2614
#> 10  2021 August AL    Alabama    Cherokee     7467        5913        2619
#> # ℹ 38,678 more rows
#> # ℹ 1 more variable: bene_rx_mapd <dbl>
…
