…
<br>

### State

``` r
# Medicare Beneficiaries
levels(period = "year", level = "state", group = "total") |> 
  dplyr::arrange(state, year, dplyr::desc(bene_tot)) |> 
  print(n = 50)
```

    #> # A tibble: 285 × 6
    #>     year state state_name           bene_tot bene_orig bene_ma_oth
    #>    <int> <chr> <chr>                   <dbl>     <dbl>       <dbl>
    #>  1  2017 AK    Alaska                  91879     90549        1330
    #>  2  2018 AK    Alaska                  96213     94698        1514
    #>  3  2019 AK    Alaska                 100297     98629        1668
    #>  4  2020 AK    Alaska                 104465    102635        1830
    #>  5  2021 AK    Alaska                 108167    105882        2285
    #>  6  2017 AL    Alabama               1007423    640531      366892
    #>  7  2018 AL    Alabama               1027493    624503      402990
    #>  8  2019 AL    Alabama               1046588    605614      440974
    #>  9  2020 AL    Alabama               1062565    576690      485875
    #> 10  2021 AL    Alabama               1070553    529079      541474
    #> 11  2017 AR    Arkansas               616231    480223      136008
    #> 12  2018 AR    Arkansas               627641    476217      151424
    #> 13  2019 AR    Arkansas               637556    468473      169083
    #> 14  2020 AR    Arkansas               646920    453946      192975
    #> 15  2021 AR    Arkansas               653386    430843      222544
    #> 16  2017 AS    American Samoa           3989      3842         147
    #> 17  2018 AS    American Samoa           4028      3823         205
    #> 18  2019 AS    American Samoa           4569      4354         216
    #> 19  2020 AS    American Samoa           4716      4446         269
    #> 20  2021 AS    American Samoa           4765      4460         305
    #> 21  2017 AZ    Arizona               1226671    753929      472743
    #> 22  2018 AZ    Arizona               1271312    775111      496201
    #> 23  2019 AZ    Arizona               1325833    789199      536634
    #> 24  2020 AZ    Arizona               1370074    788009      582065
    #> 25  2021 AZ    Arizona               1400409    767765      632643
    #> 26  2017 CA    California            5965489   3473379     2492111
    #> 27  2018 CA    California            6124095   3511605     2612490
    #> 28  2019 CA    California            6277166   3528546     2748620
    #> 29  2020 CA    California            6411106   3503899     2907207
    #> 30  2021 CA    California            6501113   3438632     3062481
    #> 31  2017 CO    Colorado               847702    530148      317554
    #> 32  2018 CO    Colorado               881044    548114      332929
    #> 33  2019 CO    Colorado               911545    530678      380867
    #> 34  2020 CO    Colorado               938949    527895      411054
    #> 35  2021 CO    Colorado               961765    518953      442812
    #> 36  2017 CT    Connecticut            654718    469847      184871
    #> 37  2018 CT    Connecticut            667724    421231      246493
    #> 38  2019 CT    Connecticut            680357    398772      281585
    #> 39  2020 CT    Connecticut            692023    382148      309875
    #> 40  2021 CT    Connecticut            702579    363536      339044
    #> 41  2017 DC    District of Columbia    91051     76569       14481
    #> 42  2018 DC    District of Columbia    92528     76020       16508
    #> 43  2019 DC    District of Columbia    94058     75614       18444
    #> 44  2020 DC    District of Columbia    94126     73305       20822
    #> 45  2021 DC    District of Columbia    94070     70236       23833
    #> 46  2017 DE    Delaware               193585    171150       22435
    #> 47  2018 DE    Delaware               201092    173181       27911
    #> 48  2019 DE    Delaware               208278    174473       33805
    #> 49  2020 DE    Delaware               215724    174831       40893
    #> 50  2021 DE    Delaware               222850    171170       51680
    #> # ℹ 235 more rows

``` r
# Aged Beneficiaries
levels(period = "year", level = "state", group = "aged")
```

    #> # A tibble: 285 × 7
    #>     year state state_name           bene_tot bene_aged_tot bene_aged_esrd
    #>    <int> <chr> <chr>                   <dbl>         <dbl>          <dbl>
    #>  1  2017 AL    Alabama               1007423        781833           4987
    #>  2  2017 AK    Alaska                  91879         79278            293
    #>  3  2017 AZ    Arizona               1226671       1072328           5361
    #>  4  2017 AR    Arkansas               616231        480992           2377
    #>  5  2017 CA    California            5965489       5268082          36785
    #>  6  2017 CO    Colorado               847702        745182           2593
    #>  7  2017 CT    Connecticut            654718        572564           2546
    #>  8  2017 DE    Delaware               193585        166603            949
    #>  9  2017 DC    District of Columbia    91051         76007            979
    #> 10  2017 FL    Florida               4295216       3747063          18045
    #> # ℹ 275 more rows
    #> # ℹ 1 more variable: bene_aged_no_esrd <dbl>

``` r
# Disabled Beneficiaries
levels(period = "year", level = "state", group = "disabled")
```

    #> # A tibble: 285 × 7
    #>     year state state_name           bene_tot bene_dsb_tot bene_dsb_esrd_and_on…¹
    #>    <int> <chr> <chr>                   <dbl>        <dbl>                  <dbl>
    #>  1  2017 AL    Alabama               1007423       225590                   5685
    #>  2  2017 AK    Alaska                  91879        12601                    369
    #>  3  2017 AZ    Arizona               1226671       154344                   4979
    #>  4  2017 AR    Arkansas               616231       135239                   2710
    #>  5  2017 CA    California            5965489       697407                  28986
    #>  6  2017 CO    Colorado               847702       102520                   2503
    #>  7  2017 CT    Connecticut            654718        82153                   2057
    #>  8  2017 DE    Delaware               193585        26982                    853
    #>  9  2017 DC    District of Columbia    91051        15044                    984
    #> 10  2017 FL    Florida               4295216       548153                  15765
    #> # ℹ 275 more rows
    #> # ℹ abbreviated name: ¹​bene_dsb_esrd_and_only_esrd
    #> # ℹ 1 more variable: bene_dsb_no_esrd <dbl>

``` r
# Beneficiaries with Hospital (Part A) and Supplementary (Part B)
levels(period = "year", level = "state", group = "partAB")
```

    #> # A tibble: 285 × 7
    #>     year state state_name     bene_tot bene_ab_total bene_ab_orig bene_ab_ma_oth
    #>    <int> <chr> <chr>             <dbl>         <dbl>        <dbl>          <dbl>
    #>  1  2017 AL    Alabama         1007423        935026       568207         366819
    #>  2  2017 AK    Alaska            91879         80134        78805           1329
    #>  3  2017 AZ    Arizona         1226671       1122760       650109         472650
    #>  4  2017 AR    Arkansas         616231        572605       436607         135999
    #>  5  2017 CA    California      5965489       5314498      2825802        2488697
    #>  6  2017 CO    Colorado         847702        764106       448313         315793
    #>  7  2017 CT    Connecticut      654718        587661       402823         184838
    #>  8  2017 DE    Delaware         193585        179142       156719          22423
    #>  9  2017 DC    District of C…    91051         74444        60015          14429
    #> 10  2017 FL    Florida         4295216       4026464      2199974        1826490
    #> # ℹ 275 more rows

``` r
# Prescription Drug (Part D) Beneficiaries
levels(period = "year", level = "state", group = "partD")
```

    #> # A tibble: 285 × 7
    #>     year state state_name     bene_tot bene_ab_total bene_ab_orig bene_ab_ma_oth
    #>    <int> <chr> <chr>             <dbl>         <dbl>        <dbl>          <dbl>
    #>  1  2017 AL    Alabama         1007423        935026       568207         366819
    #>  2  2017 AK    Alaska            91879         80134        78805           1329
    #>  3  2017 AZ    Arizona         1226671       1122760       650109         472650
    #>  4  2017 AR    Arkansas         616231        572605       436607         135999
    #>  5  2017 CA    California      5965489       5314498      2825802        2488697
    #>  6  2017 CO    Colorado         847702        764106       448313         315793
    #>  7  2017 CT    Connecticut      654718        587661       402823         184838
    #>  8  2017 DE    Delaware         193585        179142       156719          22423
    #>  9  2017 DC    District of C…    91051         74444        60015          14429
    #> 10  2017 FL    Florida         4295216       4026464      2199974        1826490
    #> # ℹ 275 more rows

<br>

### County

``` r
# Medicare Beneficiaries
levels(period = "year", level = "county", group = "total")
```

    #> # A tibble: 16,113 × 7
    #>     year state state_name county   bene_tot bene_orig bene_ma_oth
    #>    <int> <chr> <chr>      <chr>       <dbl>     <dbl>       <dbl>
    #>  1  2017 AL    Alabama    Autauga     10510      5784        4725
    #>  2  2017 AL    Alabama    Baldwin     48910     28388       20522
    #>  3  2017 AL    Alabama    Barbour      6275      4372        1903
    #>  4  2017 AL    Alabama    Bibb         4840      2480        2360
    #>  5  2017 AL    Alabama    Blount      12286      6070        6215
    #>  6  2017 AL    Alabama    Bullock      2008      1259         749
    #>  7  2017 AL    Alabama    Butler       4755      3748        1007
    #>  8  2017 AL    Alabama    Calhoun     27024     20110        6914
    #>  9  2017 AL    Alabama    Chambers     8722      6492        2230
    #> 10  2017 AL    Alabama    Cherokee     6943      4701        2242
    #> # ℹ 16,103 more rows

``` r
# Aged Beneficiaries
levels(period = "year", level = "county", group = "aged")
```

    #> # A tibble: 16,113 × 8
    #>     year state state_name county   bene_tot bene_aged_tot bene_aged_esrd
    #>    <int> <chr> <chr>      <chr>       <dbl>         <dbl>          <dbl>
    #>  1  2017 AL    Alabama    Autauga     10510          8046             48
    #>  2  2017 AL    Alabama    Baldwin     48910         41590            146
    #>  3  2017 AL    Alabama    Barbour      6275          4706             52
    #>  4  2017 AL    Alabama    Bibb         4840          3389             21
    #>  5  2017 AL    Alabama    Blount      12286          9542             38
    #>  6  2017 AL    Alabama    Bullock      2008          1434             20
    #>  7  2017 AL    Alabama    Butler       4755          3571             30
    #>  8  2017 AL    Alabama    Calhoun     27024         20142            125
    #>  9  2017 AL    Alabama    Chambers     8722          6342             61
    #> 10  2017 AL    Alabama    Cherokee     6943          5195             38
    #> # ℹ 16,103 more rows
    #> # ℹ 1 more variable: bene_aged_no_esrd <dbl>

``` r
# Disabled Beneficiaries
levels(period = "year", level = "county", group = "disabled")
```

    #> # A tibble: 16,113 × 8
    #>     year state state_name county   bene_tot bene_dsb_tot bene_dsb_esrd_and_onl…¹
    #>    <int> <chr> <chr>      <chr>       <dbl>        <dbl>                   <dbl>
    #>  1  2017 AL    Alabama    Autauga     10510         2463                      56
    #>  2  2017 AL    Alabama    Baldwin     48910         7320                     113
    #>  3  2017 AL    Alabama    Barbour      6275         1569                      54
    #>  4  2017 AL    Alabama    Bibb         4840         1451                      34
    #>  5  2017 AL    Alabama    Blount      12286         2744                      22
    #>  6  2017 AL    Alabama    Bullock      2008          574                      15
    #>  7  2017 AL    Alabama    Butler       4755         1184                      45
    #>  8  2017 AL    Alabama    Calhoun     27024         6882                     141
    #>  9  2017 AL    Alabama    Chambers     8722         2380                      53
    #> 10  2017 AL    Alabama    Cherokee     6943         1748                      25
    #> # ℹ 16,103 more rows
    #> # ℹ abbreviated name: ¹​bene_dsb_esrd_and_only_esrd
    #> # ℹ 1 more variable: bene_dsb_no_esrd <dbl>

``` r
# Beneficiaries with Hospital (Part A) and Supplementary (Part B)
levels(period = "year", level = "county", group = "partAB")
```

    #> # A tibble: 16,113 × 8
    #>     year state state_name county   bene_tot bene_ab_total bene_ab_orig
    #>    <int> <chr> <chr>      <chr>       <dbl>         <dbl>        <dbl>
    #>  1  2017 AL    Alabama    Autauga     10510          9810         5085
    #>  2  2017 AL    Alabama    Baldwin     48910         45818        25302
    #>  3  2017 AL    Alabama    Barbour      6275          5878         3975
    #>  4  2017 AL    Alabama    Bibb         4840          4553         2194
    #>  5  2017 AL    Alabama    Blount      12286         11570         5355
    #>  6  2017 AL    Alabama    Bullock      2008          1840         1091
    #>  7  2017 AL    Alabama    Butler       4755          4464         3457
    #>  8  2017 AL    Alabama    Calhoun     27024         24953        18039
    #>  9  2017 AL    Alabama    Chambers     8722          8221         5990
    #> 10  2017 AL    Alabama    Cherokee     6943          6602         4360
    #> # ℹ 16,103 more rows
    #> # ℹ 1 more variable: bene_ab_ma_oth <dbl>

``` r
# Prescription Drug (Part D) Beneficiaries
levels(period = "year", level = "county", group = "partD")
```

    #> # A tibble: 16,113 × 8
    #>     year state state_name county   bene_tot bene_rx_tot bene_rx_pdp bene_rx_mapd
    #>    <int> <chr> <chr>      <chr>       <dbl>       <dbl>       <dbl>        <dbl>
    #>  1  2017 AL    Alabama    Autauga     10510        7009        2396         4613
    #>  2  2017 AL    Alabama    Baldwin     48910       34959       15298        19661
    #>  3  2017 AL    Alabama    Barbour      6275        4649        2828         1821
    #>  4  2017 AL    Alabama    Bibb         4840        3602        1403         2199
    #>  5  2017 AL    Alabama    Blount      12286        9583        3523         6060
    #>  6  2017 AL    Alabama    Bullock      2008        1571         841          730
    #>  7  2017 AL    Alabama    Butler       4755        3592        2626          966
    #>  8  2017 AL    Alabama    Calhoun     27024       16854       10498         6355
    #>  9  2017 AL    Alabama    Chambers     8722        6392        4213         2180
    #> 10  2017 AL    Alabama    Cherokee     6943        5228        3275         1953
    #> # ℹ 16,103 more rows
…
### State

``` r
# Medicare Beneficiaries
levels(period = "month", level = "state", group = "total")
```

    #> # A tibble: 684 × 7
    #>     year month  state state_name           bene_tot bene_orig bene_ma_oth
    #>    <int> <chr>  <chr> <chr>                   <dbl>     <dbl>       <dbl>
    #>  1  2021 August AL    Alabama               1072505    527115      545390
    #>  2  2021 August AK    Alaska                 108856    106598        2258
    #>  3  2021 August AZ    Arizona               1404230    767775      636455
    #>  4  2021 August AR    Arkansas               654414    430169      224245
    #>  5  2021 August CA    California            6523853   3442959     3080894
    #>  6  2021 August CO    Colorado               965609    519995      445614
    #>  7  2021 August CT    Connecticut            704756    362700      342056
    #>  8  2021 August DE    Delaware               223611    171416       52195
    #>  9  2021 August DC    District of Columbia    94288     70143       24145
    #> 10  2021 August FL    Florida               4818048   2358735     2459313
    #> # ℹ 674 more rows

``` r
# Aged Beneficiaries
levels(period = "month", level = "state", group = "aged")
```

    #> # A tibble: 684 × 8
    #>     year month  state state_name           bene_tot bene_aged_tot bene_aged_esrd
    #>    <int> <chr>  <chr> <chr>                   <dbl>         <dbl>          <dbl>
    #>  1  2021 August AL    Alabama               1072505        867759           5344
    #>  2  2021 August AK    Alaska                 108856         97029            365
    #>  3  2021 August AZ    Arizona               1404230       1260141           5733
    #>  4  2021 August AR    Arkansas               654414        528256           2671
    #>  5  2021 August CA    California            6523853       5918013          39105
    #>  6  2021 August CO    Colorado               965609        875251           2894
    #>  7  2021 August CT    Connecticut            704756        628541           2721
    #>  8  2021 August DE    Delaware               223611        198195           1072
    #>  9  2021 August DC    District of Columbia    94288         81190            923
    #> 10  2021 August FL    Florida               4818048       4302487          20296
    #> # ℹ 674 more rows
    #> # ℹ 1 more variable: bene_aged_no_esrd <dbl>

``` r
# Disabled Beneficiaries
levels(period = "month", level = "state", group = "disabled")
```

    #> # A tibble: 684 × 8
    #>     year month  state state_name    bene_tot bene_dsb_tot bene_dsb_esrd_and_on…¹
    #>    <int> <chr>  <chr> <chr>            <dbl>        <dbl>                  <dbl>
    #>  1  2021 August AL    Alabama        1072505       204746                   5319
    #>  2  2021 August AK    Alaska          108856        11827                    395
    #>  3  2021 August AZ    Arizona        1404230       144089                   4933
    #>  4  2021 August AR    Arkansas        654414       126158                   2778
    #>  5  2021 August CA    California     6523853       605840                  26935
    #>  6  2021 August CO    Colorado        965609        90358                   2347
    #>  7  2021 August CT    Connecticut     704756        76215                   1944
    #>  8  2021 August DE    Delaware        223611        25416                    828
    #>  9  2021 August DC    District of …    94288        13098                    753
    #> 10  2021 August FL    Florida        4818048       515561                  15521
    #> # ℹ 674 more rows
    #> # ℹ abbreviated name: ¹​bene_dsb_esrd_and_only_esrd
    #> # ℹ 1 more variable: bene_dsb_no_esrd <dbl>

``` r
# Beneficiaries with Hospital (Part A) and Supplementary (Part B)
levels(period = "month", level = "state", group = "partAB")
```

    #> # A tibble: 684 × 8
    #>     year month  state state_name           bene_tot bene_ab_total bene_ab_orig
    #>    <int> <chr>  <chr> <chr>                   <dbl>         <dbl>        <dbl>
    #>  1  2021 August AL    Alabama               1072505        994211       448914
    #>  2  2021 August AK    Alaska                 108856         95922        93665
    #>  3  2021 August AZ    Arizona               1404230       1290697       654471
    #>  4  2021 August AR    Arkansas               654414        607064       382855
    #>  5  2021 August CA    California            6523853       5839500      2763487
    #>  6  2021 August CO    Colorado               965609        876124       433972
    #>  7  2021 August CT    Connecticut            704756        637618       295639
    #>  8  2021 August DE    Delaware               223611        206672       154494
    #>  9  2021 August DC    District of Columbia    94288         78484        54378
    #> 10  2021 August FL    Florida               4818048       4517960      2059475
    #> # ℹ 674 more rows
    #> # ℹ 1 more variable: bene_ab_ma_oth <dbl>
…
